firstname,lastname,email,contact,dob,address,leadsource,note
Testimonial,Lead,idk@yopmail,8934753453,1995-06-11,"Noida,Aurandabad, bhutan",IDK,"If you want to know more about it, then please go to understandingthe procedure"
Verygood,Lead,ifg@yopmail.com,345435345,1992-06-14,Biharsarif,WhyDK,"If you dont, then please go…"
Verygood,Lead,titu@yopmail.com,345345345,1992-06-14,Biharsarif,WhyDK,"If you dont, then please go…"
Verygood,Lead,ficki@yopmail.com,33345345,1992-06-14,Biharsarif,WhyDK,"If you dont, then please go…"
Verygood,Lead,ghsda@yopmail.com,234242324,1992-06-14,Biharsarif,WhyDK,"If you dont, then please go…"
Verygood,Lead,sjdfjh@jkdfkg.jg,23423423,1992-06-14,Biharsarif,WhyDK,"If you dont, then please go…"
Verygood,Lead,dfk@dflk.jsdfg,23424234,1992-06-14,Biharsarif,WhyDK,"If you dont, then please go…"
Verygood,Lead,jsdbfj@oisdru.djk,23423423,1992-06-14,Biharsarif,WhyDK,"If you dont, then please go…"
Verygood,Lead,hsdfj@jkdf.sj,324232344,1992-06-13,Biharsarif,WhyDK,"If you dont, then please go…"
Verygood,Lead,kjfg@kjdsg.sdjf,2342423,1992-06-12,Biharsarif,WhyDK,"If you dont, then please go…"
Verygood,Lead,jhfj@kjfd.sdfh,243324234,1992-06-11,Biharsarif,WhyDK,"If you dont, then please go…"
Verygood,Lead,hj@skdf.dsj,2342342,1992-06-10,Biharsarif,WhyDK,"If you dont, then please go…"
Verygood,Lead,jhdsfj@g.hsd,23423442,1992-06-9,Biharsarif,WhyDK,"If you dont, then please go…"
